^C:\USERS\CAMER\ONEDRIVE\DESKTOP\COLLEGE\YEAR2\OBJECT ORIENTED PROGRAMMING\PROGRAMS\SFML BASE\SFML TEMPLATE PROJECT\DEBUG\MAIN.OBJ
C:\USERS\CAMER\ONEDRIVE\DESKTOP\COLLEGE\YEAR2\OBJECT ORIENTED PROGRAMMING\PROGRAMS\SFML BASE\DEBUG\SFML TEMPLATE PROJECT.ILK
C:\USERS\CAMER\ONEDRIVE\DESKTOP\COLLEGE\YEAR2\OBJECT ORIENTED PROGRAMMING\PROGRAMS\SFML BASE\DEBUG\SFML TEMPLATE PROJECT.EXE
C:\USERS\CAMER\ONEDRIVE\DESKTOP\COLLEGE\YEAR2\OBJECT ORIENTED PROGRAMMING\PROGRAMS\SFML BASE\DEBUG\SFML TEMPLATE PROJECT.PDB
